…
## Histogram of the total number of steps taken each day

### Creating a new dataset called n_steps


```r
library(dplyr)
n_steps <- summarize(group_by(.data = data , date) , Steps = sum(steps))
n_steps
```

```
## # A tibble: 61 × 2
##    date                Steps
##    <dttm>              <int>
##  1 2012-10-01 00:00:00    NA
##  2 2012-10-02 00:00:00   126
##  3 2012-10-03 00:00:00 11352
##  4 2012-10-04 00:00:00 12116
##  5 2012-10-05 00:00:00 13294
##  6 2012-10-06 00:00:00 15420
##  7 2012-10-07 00:00:00 11015
##  8 2012-10-08 00:00:00    NA
##  9 2012-10-09 00:00:00 12811
## 10 2012-10-10 00:00:00  9900
## # ℹ 51 more rows
```
…
## Time series plot of the average number of steps taken

### Creating a new dataset called avg_steps


```r
avg_steps <- summarize(group_by(.data = data , interval) , Steps = mean(steps , na.rm = TRUE))
avg_steps
```

```
## # A tibble: 288 × 2
##    interval  Steps
##       <int>  <dbl>
##  1        0 1.72  
##  2        5 0.340 
##  3       10 0.132 
##  4       15 0.151 
##  5       20 0.0755
##  6       25 2.09  
##  7       30 0.528 
##  8       35 0.868 
##  9       40 0     
## 10       45 1.47  
## # ℹ 278 more rows
```
…
### Creating a new dataset called avg_steps


```r
avg_steps <- summarize(group_by(.data = data_imputed , interval , day ) , Steps = mean(steps))
avg_steps
```

```
## # A tibble: 576 × 3
## # Groups:   interval [288]
##    interval day       Steps
##       <int> <fct>     <dbl>
##  1        0 Weekday 2.25   
##  2        0 Weekend 0.215  
##  3        5 Weekday 0.445  
##  4        5 Weekend 0.0425 
##  5       10 Weekday 0.173  
##  6       10 Weekend 0.0165 
##  7       15 Weekday 0.198  
##  8       15 Weekend 0.0189 
##  9       20 Weekday 0.0990 
## 10       20 Weekend 0.00943
## # ℹ 566 more rows
```
…
